{"@t":"2023-08-24T19:01:01.4344912Z","@mt":"HTTP {RequestMethod} {RequestPath} responded {StatusCode} in {Elapsed:0.0000} ms","@r":["789.1451"],"RequestMethod":"GET","RequestPath":"/swagger","StatusCode":404,"Elapsed":789.1451,"SourceContext":"Serilog.AspNetCore.RequestLoggingMiddleware","RequestId":"0HMT4QHPDSUUK:0000000F","ConnectionId":"0HMT4QHPDSUUK"}
{"@t":"2023-08-24T19:01:01.5625704Z","@mt":"HTTP {RequestMethod} {RequestPath} responded {StatusCode} in {Elapsed:0.0000} ms","@r":["1.5495"],"RequestMethod":"GET","RequestPath":"/favicon.ico","StatusCode":404,"Elapsed":1.5495,"SourceContext":"Serilog.AspNetCore.RequestLoggingMiddleware","RequestId":"0HMT4QHPDSUUK:00000011","ConnectionId":"0HMT4QHPDSUUK"}
{"@t":"2023-08-24T19:03:32.5013899Z","@mt":"HTTP {RequestMethod} {RequestPath} responded {StatusCode} in {Elapsed:0.0000} ms","@r":["165.6922"],"RequestMethod":"GET","RequestPath":"/swagger","StatusCode":404,"Elapsed":165.6922,"SourceContext":"Serilog.AspNetCore.RequestLoggingMiddleware","RequestId":"0HMT4QJ7J0MSQ:0000000F","ConnectionId":"0HMT4QJ7J0MSQ"}
{"@t":"2023-08-24T19:03:54.1380337Z","@mt":"An unhandled exception has occurred while executing the request.","@l":"Error","@x":"Swashbuckle.AspNetCore.SwaggerGen.SwaggerGeneratorException: Conflicting method/path combination \"GET api/v1/Product/get-products\" for actions - BonTech.Product.Api.Controllers.ProductController.GetProducts (BonTech.Product.Api),BonTech.Product.Api.Controllers.ProductController.GetProducts (BonTech.Product.Api). Actions require a unique method/path combination for Swagger/OpenAPI 3.0. Use ConflictingActionsResolver as a workaround\r\n   at Swashbuckle.AspNetCore.SwaggerGen.SwaggerGenerator.GenerateOperations(IEnumerable`1 apiDescriptions, SchemaRepository schemaRepository)\r\n   at Swashbuckle.AspNetCore.SwaggerGen.SwaggerGenerator.GeneratePaths(IEnumerable`1 apiDescriptions, SchemaRepository schemaRepository)\r\n   at Swashbuckle.AspNetCore.SwaggerGen.SwaggerGenerator.GetSwaggerDocumentWithoutFilters(String documentName, String host, String basePath)\r\n   at Swashbuckle.AspNetCore.SwaggerGen.SwaggerGenerator.GetSwaggerAsync(String documentName, String host, String basePath)\r\n   at Swashbuckle.AspNetCore.Swagger.SwaggerMiddleware.Invoke(HttpContext httpContext, ISwaggerProvider swaggerProvider)\r\n   at Microsoft.AspNetCore.Diagnostics.DeveloperExceptionPageMiddlewareImpl.Invoke(HttpContext context)","EventId":{"Id":1,"Name":"UnhandledException"},"SourceContext":"Microsoft.AspNetCore.Diagnostics.DeveloperExceptionPageMiddleware","RequestId":"0HMT4QJ7J0MSQ:00000013","RequestPath":"/swagger/v1/swagger.json","ConnectionId":"0HMT4QJ7J0MSQ"}
{"@t":"2023-08-24T19:04:33.4904090Z","@mt":"HTTP {RequestMethod} {RequestPath} responded {StatusCode} in {Elapsed:0.0000} ms","@r":["167.4633"],"RequestMethod":"GET","RequestPath":"/swagger","StatusCode":404,"Elapsed":167.4633,"SourceContext":"Serilog.AspNetCore.RequestLoggingMiddleware","RequestId":"0HMT4QJPOCUNE:0000000F","ConnectionId":"0HMT4QJPOCUNE"}
{"@t":"2023-08-24T19:06:30.8097855Z","@mt":"HTTP {RequestMethod} {RequestPath} responded {StatusCode} in {Elapsed:0.0000} ms","@r":["168.9446"],"RequestMethod":"GET","RequestPath":"/swagger","StatusCode":404,"Elapsed":168.9446,"SourceContext":"Serilog.AspNetCore.RequestLoggingMiddleware","RequestId":"0HMT4QKSN0527:0000000F","ConnectionId":"0HMT4QKSN0527"}
{"@t":"2023-08-24T19:06:31.0598150Z","@mt":"HTTP {RequestMethod} {RequestPath} responded {StatusCode} in {Elapsed:0.0000} ms","@r":["1.7127"],"RequestMethod":"GET","RequestPath":"/favicon.ico","StatusCode":404,"Elapsed":1.7127,"SourceContext":"Serilog.AspNetCore.RequestLoggingMiddleware","RequestId":"0HMT4QKSN0527:00000011","ConnectionId":"0HMT4QKSN0527"}
{"@t":"2023-08-24T19:23:39.2323211Z","@mt":"Failed executing DbCommand ({elapsed}ms) [Parameters=[{parameters}], CommandType='{commandType}', CommandTimeout='{commandTimeout}']{newLine}{commandText}","@l":"Error","elapsed":"127","parameters":"@__name_0='?'","commandType":"Text","commandTimeout":30,"newLine":"\r\n","commandText":"SELECT p.\"Id\", p.\"CategoryId\", p.\"Description\", p.\"Name\", p.\"Price\"\r\nFROM \"Products\" AS p\r\nWHERE p.\"Name\" = @__name_0\r\nLIMIT 1","EventId":{"Id":20102,"Name":"Microsoft.EntityFrameworkCore.Database.Command.CommandError"},"SourceContext":"Microsoft.EntityFrameworkCore.Database.Command","ActionId":"61191c72-9069-4160-ba8a-33cb4e881917","ActionName":"BonTech.Product.Api.Controllers.ProductController.GetProducts (BonTech.Product.Api)","RequestId":"0HMT4QKSN0529:00000001","RequestPath":"/api/v1/product/get-products-for-order","ConnectionId":"0HMT4QKSN0529"}
{"@t":"2023-08-24T19:23:39.2861092Z","@mt":"An exception occurred while iterating over the results of a query for context type '{contextType}'.{newline}{error}","@l":"Error","@x":"Npgsql.PostgresException (0x80004005): 42703: column p.CategoryId does not exist\r\n\r\nPOSITION: 16\r\n   at Npgsql.Internal.NpgsqlConnector.<ReadMessage>g__ReadMessageLong|234_0(NpgsqlConnector connector, Boolean async, DataRowLoadingMode dataRowLoadingMode, Boolean readingNotifications, Boolean isReadingPrependedMessage)\r\n   at Npgsql.NpgsqlDataReader.NextResult(Boolean async, Boolean isConsuming, CancellationToken cancellationToken)\r\n   at Npgsql.NpgsqlDataReader.NextResult(Boolean async, Boolean isConsuming, CancellationToken cancellationToken)\r\n   at Npgsql.NpgsqlCommand.ExecuteReader(CommandBehavior behavior, Boolean async, CancellationToken cancellationToken)\r\n   at Npgsql.NpgsqlCommand.ExecuteReader(CommandBehavior behavior, Boolean async, CancellationToken cancellationToken)\r\n   at Npgsql.NpgsqlCommand.ExecuteDbDataReaderAsync(CommandBehavior behavior, CancellationToken cancellationToken)\r\n   at Microsoft.EntityFrameworkCore.Storage.RelationalCommand.ExecuteReaderAsync(RelationalCommandParameterObject parameterObject, CancellationToken cancellationToken)\r\n   at Microsoft.EntityFrameworkCore.Storage.RelationalCommand.ExecuteReaderAsync(RelationalCommandParameterObject parameterObject, CancellationToken cancellationToken)\r\n   at Microsoft.EntityFrameworkCore.Query.Internal.SingleQueryingEnumerable`1.AsyncEnumerator.InitializeReaderAsync(AsyncEnumerator enumerator, CancellationToken cancellationToken)\r\n   at Npgsql.EntityFrameworkCore.PostgreSQL.Storage.Internal.NpgsqlExecutionStrategy.ExecuteAsync[TState,TResult](TState state, Func`4 operation, Func`4 verifySucceeded, CancellationToken cancellationToken)\r\n   at Microsoft.EntityFrameworkCore.Query.Internal.SingleQueryingEnumerable`1.AsyncEnumerator.MoveNextAsync()\r\n  Exception data:\r\n    Severity: ERROR\r\n    SqlState: 42703\r\n    MessageText: column p.CategoryId does not exist\r\n    Position: 16\r\n    File: parse_relation.c\r\n    Line: 3656\r\n    Routine: errorMissingColumn","contextType":"BonTech.Product.Persistence.AppDbContext","newline":"\r\n","error":"Npgsql.PostgresException (0x80004005): 42703: column p.CategoryId does not exist\r\n\r\nPOSITION: 16\r\n   at Npgsql.Internal.NpgsqlConnector.<ReadMessage>g__ReadMessageLong|234_0(NpgsqlConnector connector, Boolean async, DataRowLoadingMode dataRowLoadingMode, Boolean readingNotifications, Boolean isReadingPrependedMessage)\r\n   at Npgsql.NpgsqlDataReader.NextResult(Boolean async, Boolean isConsuming, CancellationToken cancellationToken)\r\n   at Npgsql.NpgsqlDataReader.NextResult(Boolean async, Boolean isConsuming, CancellationToken cancellationToken)\r\n   at Npgsql.NpgsqlCommand.ExecuteReader(CommandBehavior behavior, Boolean async, CancellationToken cancellationToken)\r\n   at Npgsql.NpgsqlCommand.ExecuteReader(CommandBehavior behavior, Boolean async, CancellationToken cancellationToken)\r\n   at Npgsql.NpgsqlCommand.ExecuteDbDataReaderAsync(CommandBehavior behavior, CancellationToken cancellationToken)\r\n   at Microsoft.EntityFrameworkCore.Storage.RelationalCommand.ExecuteReaderAsync(RelationalCommandParameterObject parameterObject, CancellationToken cancellationToken)\r\n   at Microsoft.EntityFrameworkCore.Storage.RelationalCommand.ExecuteReaderAsync(RelationalCommandParameterObject parameterObject, CancellationToken cancellationToken)\r\n   at Microsoft.EntityFrameworkCore.Query.Internal.SingleQueryingEnumerable`1.AsyncEnumerator.InitializeReaderAsync(AsyncEnumerator enumerator, CancellationToken cancellationToken)\r\n   at Npgsql.EntityFrameworkCore.PostgreSQL.Storage.Internal.NpgsqlExecutionStrategy.ExecuteAsync[TState,TResult](TState state, Func`4 operation, Func`4 verifySucceeded, CancellationToken cancellationToken)\r\n   at Microsoft.EntityFrameworkCore.Query.Internal.SingleQueryingEnumerable`1.AsyncEnumerator.MoveNextAsync()\r\n  Exception data:\r\n    Severity: ERROR\r\n    SqlState: 42703\r\n    MessageText: column p.CategoryId does not exist\r\n    Position: 16\r\n    File: parse_relation.c\r\n    Line: 3656\r\n    Routine: errorMissingColumn","EventId":{"Id":10100,"Name":"Microsoft.EntityFrameworkCore.Query.QueryIterationFailed"},"SourceContext":"Microsoft.EntityFrameworkCore.Query","ActionId":"61191c72-9069-4160-ba8a-33cb4e881917","ActionName":"BonTech.Product.Api.Controllers.ProductController.GetProducts (BonTech.Product.Api)","RequestId":"0HMT4QKSN0529:00000001","RequestPath":"/api/v1/product/get-products-for-order","ConnectionId":"0HMT4QKSN0529"}
{"@t":"2023-08-24T19:23:55.2109302Z","@mt":"42703: column p.CategoryId does not exist\r\n\r\nPOSITION: 16","@l":"Error","@x":"Npgsql.PostgresException (0x80004005): 42703: column p.CategoryId does not exist\r\n\r\nPOSITION: 16\r\n   at Npgsql.Internal.NpgsqlConnector.<ReadMessage>g__ReadMessageLong|234_0(NpgsqlConnector connector, Boolean async, DataRowLoadingMode dataRowLoadingMode, Boolean readingNotifications, Boolean isReadingPrependedMessage)\r\n   at Npgsql.NpgsqlDataReader.NextResult(Boolean async, Boolean isConsuming, CancellationToken cancellationToken)\r\n   at Npgsql.NpgsqlDataReader.NextResult(Boolean async, Boolean isConsuming, CancellationToken cancellationToken)\r\n   at Npgsql.NpgsqlCommand.ExecuteReader(CommandBehavior behavior, Boolean async, CancellationToken cancellationToken)\r\n   at Npgsql.NpgsqlCommand.ExecuteReader(CommandBehavior behavior, Boolean async, CancellationToken cancellationToken)\r\n   at Npgsql.NpgsqlCommand.ExecuteDbDataReaderAsync(CommandBehavior behavior, CancellationToken cancellationToken)\r\n   at Microsoft.EntityFrameworkCore.Storage.RelationalCommand.ExecuteReaderAsync(RelationalCommandParameterObject parameterObject, CancellationToken cancellationToken)\r\n   at Microsoft.EntityFrameworkCore.Storage.RelationalCommand.ExecuteReaderAsync(RelationalCommandParameterObject parameterObject, CancellationToken cancellationToken)\r\n   at Microsoft.EntityFrameworkCore.Query.Internal.SingleQueryingEnumerable`1.AsyncEnumerator.InitializeReaderAsync(AsyncEnumerator enumerator, CancellationToken cancellationToken)\r\n   at Npgsql.EntityFrameworkCore.PostgreSQL.Storage.Internal.NpgsqlExecutionStrategy.ExecuteAsync[TState,TResult](TState state, Func`4 operation, Func`4 verifySucceeded, CancellationToken cancellationToken)\r\n   at Microsoft.EntityFrameworkCore.Query.Internal.SingleQueryingEnumerable`1.AsyncEnumerator.MoveNextAsync()\r\n   at Microsoft.EntityFrameworkCore.Query.ShapedQueryCompilingExpressionVisitor.SingleOrDefaultAsync[TSource](IAsyncEnumerable`1 asyncEnumerable, CancellationToken cancellationToken)\r\n   at Microsoft.EntityFrameworkCore.Query.ShapedQueryCompilingExpressionVisitor.SingleOrDefaultAsync[TSource](IAsyncEnumerable`1 asyncEnumerable, CancellationToken cancellationToken)\r\n   at BonTech.Product.Application.Services.ProductService.GetProducts(OrderDto dto) in D:\\Программирование\\Проекты\\BonTech.Product\\BonTech.Product.Application\\Services\\ProductService.cs:line 68\r\n  Exception data:\r\n    Severity: ERROR\r\n    SqlState: 42703\r\n    MessageText: column p.CategoryId does not exist\r\n    Position: 16\r\n    File: parse_relation.c\r\n    Line: 3656\r\n    Routine: errorMissingColumn","SourceContext":"BonTech.Product.Application.Services.ProductService","ActionId":"61191c72-9069-4160-ba8a-33cb4e881917","ActionName":"BonTech.Product.Api.Controllers.ProductController.GetProducts (BonTech.Product.Api)","RequestId":"0HMT4QKSN0529:00000001","RequestPath":"/api/v1/product/get-products-for-order","ConnectionId":"0HMT4QKSN0529"}
{"@t":"2023-08-24T19:23:55.2886775Z","@mt":"HTTP {RequestMethod} {RequestPath} responded {StatusCode} in {Elapsed:0.0000} ms","@r":["79786.4406"],"RequestMethod":"POST","RequestPath":"/api/v1/product/get-products-for-order","StatusCode":400,"Elapsed":79786.4406,"SourceContext":"Serilog.AspNetCore.RequestLoggingMiddleware","RequestId":"0HMT4QKSN0529:00000001","ConnectionId":"0HMT4QKSN0529"}
